<?xml version="1.0" standalone="no"?>
<!DOCTYPE svg PUBLIC "-//W3C//DTD SVG 1.1//EN" "http://www.w3.org/Graphics/SVG/1.1/DTD/svg11.dtd" >
<svg xmlns="http://www.w3.org/2000/svg">
<metadata>Generated by IcoMoon</metadata>
<defs>
<font id="icomoon" horiz-adv-x="1024">
<font-face units-per-em="1024" ascent="960" descent="-64" />
<missing-glyph horiz-adv-x="1024" />
<glyph unicode="&#x20;" horiz-adv-x="512" d="" />
<glyph unicode="&#xe900;" glyph-name="star-o" horiz-adv-x="983" d="M489.609 688.572c-132.040-1.083-238.66-108.372-238.66-240.564 0-132.864 107.708-240.572 240.572-240.572 132.861 0 240.567 107.703 240.572 240.564 0 0.003 0 0.005 0 0.008 0 132.864-107.708 240.572-240.572 240.572-0.672 0-1.343-0.003-2.014-0.008zM584.090 321.843l-87.654 39.322-89.020-39.322 12.834 92.023-65.263 68.54 96.119 17.203 45.875 81.92 47.514-81.92 95.027-17.749-66.082-67.994z" />
<glyph unicode="&#xe901;" glyph-name="back" horiz-adv-x="983" d="M737.28 476.672h-382.293l169.301 155.648-38.229 38.229-240.299-223.915 240.299-221.184 38.229 38.229-169.301 158.379h382.293z" />
<glyph unicode="&#xe902;" glyph-name="burger" horiz-adv-x="983" d="M245.76 282.795h491.52v54.613h-491.52v-54.613zM245.76 419.328h491.52v54.613h-491.52v-54.613zM245.76 610.475v-54.613h491.52v54.613h-491.52z" />
<glyph unicode="&#xe903;" glyph-name="catalogue" horiz-adv-x="983" d="M251.221 550.4h68.267v68.267h-68.267v-68.267zM354.987 602.283v-35.499h379.563v35.499h-379.563zM251.221 413.867h68.267v68.267h-68.267v-68.267zM354.987 430.251h379.563v35.499h-379.563v-35.499zM251.221 274.603h68.267v68.267h-68.267v-68.267zM354.987 293.717h379.563v35.499h-379.563v-35.499z" />
<glyph unicode="&#xe904;" glyph-name="close" horiz-adv-x="983" d="M685.397 602.283l-38.229 38.229-155.648-152.917-155.648 152.917-38.229-38.229 155.648-155.648-155.648-152.917 38.229-38.229 155.648 152.917 155.648-152.917 38.229 38.229-155.648 152.917z" />
<glyph unicode="&#xe905;" glyph-name="duty_free" horiz-adv-x="983" d="M778.24 547.669l-103.765 114.688c-2.731 2.731-8.192 5.461-13.653 5.461h-338.603c-5.461 0-10.923-2.731-13.653-5.461l-103.765-117.419c-5.461-8.192-5.461-16.384 0-24.576l273.067-292.181c2.731-2.731 8.192-5.461 13.653-5.461s10.923 2.731 13.653 5.461l273.067 292.181c5.461 10.923 5.461 21.845 0 27.307zM592.555 528.555l-101.035-243.029-106.496 243.029h207.531zM376.832 544.939l-38.229 87.381h300.373l-38.229-87.381h-223.915zM466.944 296.448l-215.723 232.107h114.688l101.035-232.107zM611.669 528.555h120.149c0 0 0 0 0 0l-218.453-234.837 98.304 234.837zM731.819 544.939h-111.957l35.499 87.381 76.459-87.381zM322.219 624.128l35.499-79.189h-106.496l70.997 79.189zM491.52 626.859h-106.496c-5.461 0-8.192-2.731-8.192-8.192s2.731-8.192 8.192-8.192h106.496c5.461 0 8.192 2.731 8.192 8.192s-2.731 8.192-8.192 8.192zM581.632 626.859h-43.691c-5.461 0-8.192-2.731-8.192-8.192s2.731-8.192 8.192-8.192h43.691c5.461 0 8.192 2.731 8.192 8.192s-2.731 8.192-8.192 8.192z" />
<glyph unicode="&#xe906;" glyph-name="empreinte" horiz-adv-x="983" d="M570.709 28.843c-5.461 0-10.923-2.731-16.384-5.461-2.731-2.731-5.461-5.461-8.192-8.192 13.653 2.731 24.576 2.731 38.229 5.461 0 0 0 0 0 0-2.731 2.731-8.192 5.461-13.653 8.192zM600.747 241.835c-8.192 2.731-16.384-2.731-19.115-10.923-35.499-76.459-76.459-152.917-155.648-218.453 16.384-2.731 32.768-2.731 49.152-2.731 49.152 46.421 84.651 98.304 111.957 150.187 8.192-38.229 21.845-84.651 49.152-128.341 10.923 2.731 24.576 8.192 35.499 13.653-54.613 79.189-54.613 180.224-54.613 180.224 0 8.192-5.461 13.653-16.384 16.384zM830.123 711.509c-49.152 81.92-128.341 139.264-223.915 163.84-229.376 54.613-401.408-103.765-447.829-281.259l-5.461-16.384c-8.192-40.96-24.576-79.189-46.421-111.957-8.192-8.192-5.461-19.115 2.731-24.576s19.115-2.731 24.576 5.461c27.307 38.229 43.691 79.189 54.613 125.611l2.731 13.653c43.691 161.109 199.339 303.104 406.869 253.952 84.651-21.845 155.648-73.728 199.339-147.456 62.805-106.496 46.421-223.915 38.229-267.605v-2.731c-10.923-51.883-13.653-106.496-8.192-152.917 0-8.192 8.192-16.384 19.115-16.384 0 0 0 0 2.731 0 10.923 0 16.384 10.923 16.384 19.115-5.461 40.96 0 92.843 8.192 141.995v2.731c8.192 49.152 24.576 177.493-43.691 294.912zM786.432 432.981v0c0 2.731 0 2.731 0 2.731s0 0 0 0 0 2.731 0 2.731 0 2.731 0 5.461c0 0 0 2.731 0 5.461s0 2.731 0 5.461c0 0 0 2.731 0 5.461s0 5.461 0 5.461c0 0 0 2.731 0 2.731 0 2.731 0 5.461 0 8.192 0 0 0 2.731 0 2.731 0 2.731 0 5.461 0 10.923 0 0 0 0 0 0 2.731 40.96 0 90.112-21.845 141.995 0 0 0 2.731-2.731 2.731-2.731 5.461-2.731 8.192-5.461 13.653s-5.461 10.923-8.192 16.384c-35.499 62.805-95.573 106.496-169.301 122.88-76.459 19.115-144.725 5.461-202.069-27.307-51.883-30.037-92.843-76.459-120.149-128.341-10.923-19.115-19.115-40.96-24.576-62.805l-2.731-10.923c0 0 0 0 0 0v0c-21.845-109.227-81.92-180.224-128.341-218.453-8.192-5.461-8.192-19.115-2.731-24.576 5.461-8.192 19.115-8.192 24.576-2.731 51.883 43.691 117.419 120.149 141.995 240.299l2.731 10.923c10.923 43.691 32.768 84.651 62.805 117.419 54.613 62.805 139.264 98.304 237.568 73.728 62.805-16.384 114.688-51.883 147.456-106.496 16.384-30.037 27.307-60.075 30.037-87.381 0 0 0-2.731 0-2.731 0-8.192 2.731-16.384 2.731-24.576 0-2.731 0-2.731 0-5.461 0-5.461 0-10.923 0-19.115 0-2.731 0-5.461 0-8.192 0-5.461 0-8.192 0-13.653 0-2.731 0-8.192 0-10.923s0-5.461 0-8.192c0-2.731 0-8.192-2.731-10.923 0-2.731 0-5.461-2.731-8.192 0-2.731 0-5.461-2.731-8.192v-2.731c-8.192-46.421-32.768-202.069 24.576-294.912 2.731-5.461 8.192-8.192 16.384-8.192 2.731 0 5.461 0 10.923 2.731 8.192 5.461 10.923 16.384 5.461 24.576-43.691 87.381-19.115 240.299-10.923 270.336zM701.781 449.365v0c8.192 32.768 19.115 106.496-21.845 174.763-24.576 40.96-65.536 70.997-114.688 81.92-122.88 30.037-212.992-54.613-240.299-155.648l-2.731-5.461c-32.768-172.032-150.187-267.605-199.339-300.373-8.192-5.461-10.923-16.384-5.461-24.576s16.384-10.923 24.576-5.461c51.883 35.499 180.224 136.533 215.723 322.219v5.461c21.845 81.92 95.573 152.917 196.608 131.072 40.96-10.923 70.997-32.768 92.843-65.536 32.768-57.344 21.845-125.611 16.384-144.725v-2.731c-16.384-79.189-40.96-275.797 60.075-390.485 10.923 5.461 21.845 10.923 30.037 19.115 0 0 0 2.731-2.731 2.731-92.843 101.035-62.805 300.373-49.152 357.717zM617.131 471.211c2.731 8.192 13.653 65.536-10.923 109.227-13.653 21.845-32.768 35.499-60.075 43.691-81.92 19.115-125.611-51.883-136.533-95.573-40.96-207.531-182.955-319.488-243.029-360.448-8.192-5.461-10.923-16.384-5.461-24.576s16.384-10.923 24.576-5.461c62.805 40.96 212.992 161.109 256.683 379.563 0 2.731 24.576 84.651 92.843 68.267 16.384-5.461 30.037-13.653 38.229-27.307 19.115-32.768 5.461-81.92 5.461-81.92s0-2.731 0-2.731-43.691-303.104-267.605-431.445c13.653-5.461 30.037-10.923 46.421-13.653 212.992 141.995 253.952 417.792 259.413 442.368zM532.48 501.248c2.731 10.923-5.461 19.115-13.653 21.845-10.923 2.731-19.115-5.461-21.845-13.653 0-2.731-57.344-300.373-289.451-409.6 10.923-8.192 24.576-16.384 35.499-21.845 232.107 120.149 286.72 409.6 289.451 423.253z" />
<glyph unicode="&#xe907;" glyph-name="game" horiz-adv-x="983" d="M690.859 443.904c-16.384 16.384-38.229 27.307-62.805 27.307-10.923 0-19.115-2.731-30.037-5.461-10.923 8.192-21.845 16.384-30.037 21.845 8.192 8.192 19.115 16.384 40.96 19.115 16.384 2.731 30.037 8.192 40.96 21.845 19.115 24.576 13.653 62.805 13.653 65.536 0 8.192-8.192 13.653-16.384 10.923-8.192 0-13.653-8.192-10.923-16.384 0 0 5.461-30.037-8.192-43.691-5.461-5.461-10.923-8.192-19.115-10.923-30.037-2.731-49.152-16.384-57.344-27.307-13.653 13.653-24.576 32.768-35.499 49.152 8.192 30.037 0 65.536-21.845 87.381-16.384 16.384-40.96 27.307-62.805 27.307-24.576 0-46.421-8.192-62.805-27.307l-49.152-38.229c-30.037-30.037-76.459-122.88-35.499-163.84 8.192-8.192 21.845-13.653 38.229-13.653 19.115 0 43.691 8.192 65.536 16.384l101.035-101.035c-13.653-35.499-27.307-76.459-2.731-101.035 8.192-8.192 21.845-16.384 43.691-16.384 43.691 0 98.304 30.037 120.149 51.883l40.96 40.96c32.768 32.768 32.768 90.112 0 125.611zM669.013 337.408l-40.96-40.96c-19.115-19.115-68.267-43.691-101.035-43.691-10.923 0-19.115 2.731-24.576 8.192-16.384 16.384 5.461 62.805 13.653 87.381l-128.341 128.341c-19.115-5.461-49.152-19.115-70.997-19.115-8.192 0-13.653 2.731-16.384 5.461-24.576 24.576 10.923 101.035 35.499 122.88l40.96 40.96c10.923 10.923 27.307 19.115 43.691 19.115s32.768-5.461 43.691-19.115c19.115-19.115 21.845-46.421 13.653-68.267 21.845-46.421 51.883-84.651 114.688-122.88 10.923 5.461 21.845 8.192 30.037 8.192 16.384 0 32.768-5.461 43.691-19.115 27.307-24.576 27.307-62.805 2.731-87.381zM469.675 490.325c-2.731 2.731-8.192 2.731-10.923 0s-2.731-8.192 0-10.923l21.845-21.845c0 0 2.731-2.731 5.461-2.731s2.731 0 5.461 2.731 2.731 8.192 0 10.923l-21.845 21.845zM428.715 583.168c-2.731 2.731-8.192 2.731-10.923 0l-21.845-21.845-21.845 21.845c-2.731 2.731-8.192 2.731-10.923 0s-2.731-8.192 0-10.923l21.845-21.845-21.845-21.845c-2.731-2.731-2.731-8.192 0-10.923 0 0 2.731-2.731 5.461-2.731s2.731 0 5.461 2.731l21.845 21.845 21.845-21.845c2.731 0 2.731-2.731 5.461-2.731s2.731 0 5.461 2.731 2.731 8.192 0 10.923l-19.115 21.845 21.845 21.845c0 2.731 0 8.192-2.731 10.923zM630.784 340.139c0 0-2.731-2.731-2.731-5.461s0-2.731 2.731-5.461c0 0 2.731-2.731 5.461-2.731s2.731 0 5.461 2.731c0 0 2.731 2.731 2.731 5.461s0 2.731-2.731 5.461-8.192 2.731-10.923 0zM630.784 392.021c0 0-2.731-2.731-2.731-5.461s0-2.731 2.731-5.461c0 0 2.731-2.731 5.461-2.731s2.731 0 5.461 2.731c0 0 2.731 2.731 2.731 5.461s0 2.731-2.731 5.461-8.192 2.731-10.923 0zM600.747 340.139c0 0-2.731-2.731-2.731-5.461s0-2.731 2.731-5.461c0 0 2.731-2.731 5.461-2.731s2.731 0 5.461 2.731c0 0 2.731 2.731 2.731 5.461s0 2.731-2.731 5.461-8.192 2.731-10.923 0zM600.747 392.021c0 0-2.731-2.731-2.731-5.461s0-2.731 2.731-5.461c0 0 2.731-2.731 5.461-2.731s2.731 0 5.461 2.731c0 0 2.731 2.731 2.731 5.461s0 2.731-2.731 5.461c-5.461 2.731-8.192 2.731-10.923 0zM567.979 340.139c0 0-2.731-2.731-2.731-5.461s0-2.731 2.731-5.461c0 0 2.731-2.731 5.461-2.731s2.731 0 5.461 2.731c0 0 2.731 2.731 2.731 5.461s0 2.731-2.731 5.461-8.192 2.731-10.923 0zM567.979 392.021c0 0-2.731-2.731-2.731-5.461s0-2.731 2.731-5.461c0 0 2.731-2.731 5.461-2.731s2.731 0 5.461 2.731c0 0 2.731 2.731 2.731 5.461s0 2.731-2.731 5.461-8.192 2.731-10.923 0zM510.635 446.635c-2.731 2.731-8.192 2.731-10.923 0s-2.731-8.192 0-10.923l21.845-21.845c0-2.731 2.731-2.731 5.461-2.731s2.731 0 5.461 2.731 2.731 8.192 0 10.923l-21.845 21.845z" />
<glyph unicode="&#xe908;" glyph-name="info" horiz-adv-x="983" d="M483.328 503.979c0 2.731 0 2.731 2.731 5.461 0 2.731 2.731 2.731 5.461 2.731s5.461 0 5.461-2.731 2.731-2.731 2.731-5.461 0-2.731-2.731-5.461-2.731-2.731-5.461-2.731-5.461 0-5.461 2.731-2.731 5.461-2.731 5.461zM496.981 375.637h-10.923v101.035h10.923v-101.035zM491.52 318.293c-70.997 0-128.341 57.344-128.341 128.341s57.344 131.072 128.341 131.072 128.341-57.344 128.341-128.341-57.344-131.072-128.341-131.072zM491.52 569.515c-68.267 0-122.88-54.613-122.88-122.88s54.613-122.88 122.88-122.88 122.88 54.613 122.88 122.88-54.613 122.88-122.88 122.88z" />
<glyph unicode="&#xe909;" glyph-name="presse" horiz-adv-x="983" d="M693.589 640.512v-387.755h-404.139v387.755h404.139zM693.589 670.549h-404.139c-16.384 0-27.307-16.384-27.307-32.768v-387.755c0-16.384 13.653-24.576 27.307-24.576h401.408c16.384 0 30.037 10.923 30.037 24.576v387.755c0 16.384-13.653 32.768-27.307 32.768v0zM562.517 534.016h-87.381c-2.731 0-8.192 2.731-8.192 8.192s2.731 8.192 8.192 8.192h87.381c2.731 0 8.192-2.731 8.192-8.192s-2.731-8.192-8.192-8.192zM655.36 534.016h-65.536c-2.731 0-8.192 2.731-8.192 8.192s2.731 8.192 8.192 8.192h65.536c2.731 0 8.192-2.731 8.192-8.192s-2.731-8.192-8.192-8.192zM521.557 498.517h-43.691c-2.731 0-8.192 2.731-8.192 8.192s2.731 8.192 8.192 8.192h43.691c2.731 0 8.192-2.731 8.192-8.192s-5.461-8.192-8.192-8.192zM598.016 498.517h-49.152c-2.731 0-8.192 2.731-8.192 8.192s2.731 8.192 8.192 8.192h49.152c2.731 0 8.192-2.731 8.192-8.192s-2.731-8.192-8.192-8.192zM548.864 463.019h-70.997c-2.731 0-8.192 2.731-8.192 8.192s2.731 8.192 8.192 8.192h70.997c2.731 0 8.192-2.731 8.192-8.192s-5.461-8.192-8.192-8.192zM628.053 463.019h-49.152c-2.731 0-8.192 2.731-8.192 8.192s2.731 8.192 8.192 8.192h49.152c2.731 0 8.192-2.731 8.192-8.192s-5.461-8.192-8.192-8.192zM655.36 498.517h-27.307c-2.731 0-8.192 2.731-8.192 8.192s2.731 8.192 8.192 8.192h27.307c2.731 0 8.192-2.731 8.192-8.192s-2.731-8.192-8.192-8.192zM469.675 383.829h-122.88c-2.731 0-8.192 2.731-8.192 8.192s2.731 8.192 8.192 8.192h122.88c2.731 0 8.192-2.731 8.192-8.192s-2.731-8.192-8.192-8.192zM584.363 383.829h-87.381c-2.731 0-8.192 2.731-8.192 8.192s2.731 8.192 8.192 8.192h87.381c2.731 0 8.192-2.731 8.192-8.192s-2.731-8.192-8.192-8.192zM655.36 383.829h-43.691c-2.731 0-8.192 2.731-8.192 8.192s2.731 8.192 8.192 8.192h43.691c2.731 0 8.192-2.731 8.192-8.192s-2.731-8.192-8.192-8.192zM425.984 348.331h-79.189c-2.731 0-8.192 2.731-8.192 8.192 0 2.731 2.731 8.192 8.192 8.192h79.189c2.731 0 8.192-2.731 8.192-8.192s-2.731-8.192-8.192-8.192zM505.173 348.331h-49.152c-2.731 0-8.192 2.731-8.192 8.192 0 2.731 2.731 8.192 8.192 8.192h49.152c2.731 0 8.192-2.731 8.192-8.192s-2.731-8.192-8.192-8.192zM456.021 312.832h-106.496c-2.731 0-8.192 2.731-8.192 8.192s2.731 8.192 8.192 8.192h106.496c2.731 0 8.192-2.731 8.192-8.192s-5.461-8.192-8.192-8.192zM562.517 312.832h-79.189c-2.731 0-8.192 2.731-8.192 8.192s2.731 8.192 8.192 8.192h79.189c2.731 0 8.192-2.731 8.192-8.192s-2.731-8.192-8.192-8.192zM655.36 312.832h-70.997c-2.731 0-8.192 2.731-8.192 8.192s2.731 8.192 8.192 8.192h70.997c2.731 0 8.192-2.731 8.192-8.192s-2.731-8.192-8.192-8.192zM655.36 348.331h-114.688c-2.731 0-8.192 2.731-8.192 8.192 0 2.731 2.731 8.192 8.192 8.192h114.688c2.731 0 8.192-2.731 8.192-8.192s-2.731-8.192-8.192-8.192zM442.368 534.016h-101.035c-2.731 0-8.192 2.731-8.192 8.192s2.731 8.192 8.192 8.192h101.035c2.731 0 8.192-2.731 8.192-8.192s-5.461-8.192-8.192-8.192zM412.331 427.52h-43.691c-2.731 0-8.192 2.731-8.192 8.192s2.731 8.192 8.192 8.192h43.691c2.731 0 8.192-2.731 8.192-8.192s-2.731-8.192-8.192-8.192zM390.485 427.52c-2.731 0-8.192 2.731-8.192 8.192v106.496c0 2.731 2.731 8.192 8.192 8.192 2.731 0 8.192-2.731 8.192-8.192v-106.496c0-5.461-2.731-8.192-8.192-8.192zM442.368 512.171c-2.731 0-8.192 2.731-8.192 8.192v21.845c0 2.731 2.731 8.192 8.192 8.192 2.731 0 8.192-2.731 8.192-8.192v-21.845c-2.731-5.461-5.461-8.192-8.192-8.192zM341.333 512.171c-2.731 0-8.192 2.731-8.192 8.192v21.845c0 2.731 2.731 8.192 8.192 8.192 2.731 0 8.192-2.731 8.192-8.192v-21.845c-2.731-5.461-5.461-8.192-8.192-8.192z" />
<glyph unicode="&#xe90a;" glyph-name="tri_asc" horiz-adv-x="983" d="M466.944 438.443h204.8c10.923 0 19.115-8.192 19.115-19.115s-8.192-19.115-19.115-19.115h-204.8c-10.923 0-19.115 8.192-19.115 19.115 2.731 10.923 10.923 19.115 19.115 19.115zM466.944 501.248h111.957c10.923 0 19.115-8.192 19.115-19.115s-8.192-19.115-19.115-19.115h-111.957c-10.923 0-19.115 8.192-19.115 19.115 2.731 10.923 10.923 19.115 19.115 19.115zM300.373 364.715c8.192 8.192 24.576 8.192 32.768 0l32.768-32.768v297.643c0 13.653 10.923 21.845 21.845 21.845 13.653 0 21.845-10.923 21.845-21.845v-297.643l32.768 32.768c8.192 8.192 24.576 8.192 32.768 0s8.192-24.576 0-32.768l-87.381-87.381-87.381 87.381c-10.923 8.192-10.923 24.576 0 32.768zM505.173 553.131h-27.307l-5.461-16.384h-16.384l27.307 76.459h13.653l27.307-76.459h-16.384l-2.731 16.384zM480.597 564.053h19.115l-10.923 27.307-8.192-27.307zM554.325 547.669h38.229v-13.653h-57.344v8.192l38.229 54.613h-38.229v13.653h57.344v-5.461l-38.229-57.344z" />
<glyph unicode="&#xe90b;" glyph-name="tri_desc" horiz-adv-x="983" d="M466.944 280.064h204.8c10.923 0 19.115-8.192 19.115-19.115s-8.192-19.115-19.115-19.115h-204.8c-10.923 0-19.115 8.192-19.115 19.115 2.731 10.923 10.923 19.115 19.115 19.115zM466.944 342.869h111.957c10.923 0 19.115-8.192 19.115-19.115s-8.192-19.115-19.115-19.115h-111.957c-10.923 0-19.115 8.192-19.115 19.115 2.731 10.923 10.923 19.115 19.115 19.115zM475.136 531.285c-8.192-8.192-24.576-8.192-32.768 0l-32.768 32.768v-297.643c0-13.653-10.923-21.845-21.845-21.845-13.653 0-21.845 10.923-21.845 21.845v297.643l-32.768-32.768c-8.192-8.192-24.576-8.192-32.768 0s-8.192 24.576 0 32.768l87.381 87.381 87.381-87.381c10.923-8.192 10.923-24.576 0-32.768zM477.867 392.021h38.229v-13.653h-57.344v8.192l38.229 54.613h-38.229v13.653h57.344v-8.192l-38.229-54.613zM576.171 394.752h-27.307l-5.461-16.384h-16.384l27.307 76.459h13.653l27.307-76.459h-16.384l-2.731 16.384zM551.595 405.675h19.115l-10.923 27.307-8.192-27.307z" />
<glyph unicode="&#xe90c;" glyph-name="video" horiz-adv-x="983" d="M344.064 643.243l289.451-193.877-289.451-193.877v387.755zM346.795 670.549c-5.461 0-10.923 0-13.653-2.731-8.192-5.461-16.384-13.653-16.384-24.576v-387.755c0-10.923 8.192-19.115 16.384-24.576 5.461-2.731 8.192-2.731 13.653-2.731s10.923 2.731 16.384 5.461l289.451 193.877c8.192 5.461 13.653 13.653 13.653 24.576 0 8.192-5.461 19.115-13.653 24.576l-289.451 193.877c-5.461-2.731-10.923 0-16.384 0v0zM578.901 452.096c0 0-2.731 0-2.731 0l-144.725 98.304c-2.731 2.731-2.731 5.461-2.731 10.923 2.731 2.731 5.461 2.731 10.923 2.731l141.995-95.573c2.731-2.731 2.731-5.461 2.731-10.923-2.731-2.731-5.461-5.461-5.461-5.461zM412.331 564.053c0 0-2.731 0-2.731 0l-32.768 21.845c-2.731 2.731-2.731 5.461-2.731 10.923 2.731 2.731 5.461 2.731 10.923 2.731l32.768-21.845c2.731-2.731 2.731-5.461 2.731-10.923-5.461 0-5.461-2.731-8.192-2.731z" />
<glyph unicode="&#xe90d;" glyph-name="presse2" horiz-adv-x="983" d="M212.992 684.203v-447.829h576.171v447.829h-576.171zM756.395 269.141h-510.635v382.293h510.635v-382.293zM486.059 509.44h-207.531v16.384h207.531v-16.384zM486.059 443.904h-207.531v16.384h207.531v-16.384zM486.059 381.099h-207.531v16.384h207.531v-16.384zM723.627 318.293h-447.829v13.653h447.829v-13.653zM516.096 525.824h207.531v-144.725h-207.531v144.725zM723.627 572.245h-447.829v49.152h447.829v-49.152z" />
<glyph unicode="&#xe90e;" glyph-name="game2" horiz-adv-x="983" d="M720.896 416.597c-5.461 40.96-35.499 54.613-35.499 54.613s-2.731 19.115-5.461 24.576c0 2.731-2.731 8.192-10.923 10.923 0 0 0 2.731-2.731 5.461-2.731 0-19.115 2.731-24.576 2.731s-19.115 0-24.576-2.731c-2.731-2.731-2.731-5.461-2.731-5.461-5.461-2.731-8.192-8.192-8.192-8.192l-5.461-27.307h-84.651v218.453h-24.576v-218.453h-81.92l-5.461 27.307c0 0-2.731 5.461-8.192 8.192 0 0 0 2.731-2.731 5.461-5.461 2.731-19.115 2.731-24.576 2.731s-21.845-2.731-24.576-2.731c-2.731 0-2.731-2.731-2.731-5.461-8.192-2.731-10.923-8.192-10.923-10.923 0-5.461-5.461-24.576-5.461-24.576s-30.037-16.384-35.499-54.613c-5.461-40.96-19.115-139.264-19.115-139.264s2.731-35.499 27.307-49.152c27.307-10.923 51.883 0 62.805 19.115s51.883 90.112 51.883 90.112h180.224c0 0 40.96-73.728 51.883-90.112 10.923-19.115 35.499-30.037 62.805-19.115s27.307 49.152 27.307 49.152-10.923 98.304-13.653 139.264zM349.525 446.635c0 2.731 2.731 5.461 5.461 5.461h16.384c2.731 0 5.461-2.731 5.461-5.461v-10.923c0-2.731-2.731-5.461-5.461-8.192l-5.461-5.461c-2.731-2.731-5.461-2.731-8.192 0l-5.461 5.461c-2.731 2.731-5.461 5.461-5.461 8.192l2.731 10.923zM338.603 400.213h-10.923c-2.731 0-5.461 2.731-5.461 5.461v16.384c0 2.731 2.731 5.461 5.461 5.461h10.923c2.731 0 5.461-2.731 8.192-2.731l5.461-5.461c2.731-2.731 2.731-5.461 0-8.192l-5.461-5.461c0-5.461-5.461-5.461-8.192-5.461zM376.832 378.368c0-2.731-2.731-5.461-5.461-5.461h-16.384c-2.731 0-5.461 2.731-5.461 5.461v10.923c0 2.731 2.731 5.461 5.461 8.192l5.461 5.461c2.731 2.731 5.461 2.731 8.192 0l5.461-5.461c2.731-2.731 5.461-5.461 5.461-8.192l-2.731-10.923zM404.139 405.675c0-2.731-2.731-5.461-5.461-5.461h-10.923c-2.731 0-5.461 2.731-8.192 2.731l-5.461 5.461c-2.731 2.731-2.731 5.461 0 8.192l5.461 5.461c2.731 2.731 5.461 2.731 8.192 2.731h10.923c2.731 0 5.461-2.731 5.461-5.461v-13.653zM606.208 397.483c-10.923 0-16.384 8.192-16.384 16.384s8.192 16.384 16.384 16.384c10.923 0 16.384-8.192 16.384-16.384s-5.461-16.384-16.384-16.384zM644.437 359.253c-10.923 0-16.384 8.192-16.384 16.384 0 10.923 8.192 16.384 16.384 16.384 10.923 0 16.384-8.192 16.384-16.384s-8.192-16.384-16.384-16.384zM644.437 432.981c-10.923 0-16.384 8.192-16.384 16.384 0 10.923 8.192 16.384 16.384 16.384 10.923 0 16.384-8.192 16.384-16.384 0-10.923-8.192-16.384-16.384-16.384zM679.936 397.483c-10.923 0-16.384 8.192-16.384 16.384s8.192 16.384 16.384 16.384c10.923 0 16.384-8.192 16.384-16.384s-5.461-16.384-16.384-16.384z" />
<glyph unicode="&#xe90f;" glyph-name="video2" horiz-adv-x="983" d="M431.445 493.056v-223.915c0-27.307 21.845-49.152 49.152-49.152h234.837c27.307 0 49.152 21.845 49.152 49.152v223.915h-333.141zM671.744 463.019h46.421l-30.037-30.037h-46.421l30.037 30.037zM581.632 463.019h46.421l-30.037-30.037h-46.421l30.037 30.037zM491.52 463.019h46.421l-30.037-30.037h-46.421l30.037 30.037zM734.549 269.141c0-10.923-5.461-19.115-16.384-19.115h-234.837c-10.923 0-21.845 8.192-21.845 19.115v133.803h273.067v-133.803zM551.595 372.907v-95.573l90.112 46.421-90.112 49.152zM341.333 326.485h76.459v30.037h-46.421l-30.037-30.037zM281.259 629.589h333.141v-120.149h60.075v120.149c0 24.576-19.115 46.421-46.421 46.421h-363.179c-24.576 0-46.421-19.115-46.421-46.421v-210.261c0-24.576 19.115-46.421 46.421-46.421h150.187v46.421h-136.533v210.261z" />
<glyph unicode="&#xe910;" glyph-name="wheel" horiz-adv-x="983" d="M518.827 801.621l21.845-87.381c38.229-8.192 73.728-21.845 106.496-43.691l76.459 46.421 38.229-38.229-46.421-76.459c21.845-30.037 38.229-68.267 43.691-106.496l87.381-21.845v-54.613l-87.381-21.845c-8.192-38.229-21.845-73.728-43.691-106.496l46.421-76.459-38.229-38.229-76.459 46.421c-30.037-21.845-68.267-38.229-106.496-43.691l-21.845-87.381h-54.613l-21.845 87.381c-38.229 8.192-73.728 21.845-106.496 43.691l-76.459-46.421-38.229 38.229 46.421 76.459c-21.845 32.768-38.229 68.267-43.691 109.227l-87.381 19.115v54.613l87.381 21.845c8.192 38.229 21.845 73.728 43.691 106.496l-46.421 76.459 38.229 38.229 76.459-46.421c30.037 21.845 68.267 38.229 106.496 43.691l21.845 87.381h54.613zM491.52 255.488c106.496 0 191.147 84.651 191.147 191.147s-84.651 191.147-191.147 191.147-191.147-84.651-191.147-191.147 84.651-191.147 191.147-191.147zM518.827 828.928h-54.613c-13.653 0-24.576-8.192-27.307-21.845l-16.384-70.997c-30.037-8.192-57.344-19.115-84.651-35.499l-62.805 40.96c-2.731 2.731-8.192 2.731-13.653 2.731s-13.653-2.731-19.115-5.461l-38.229-40.96c-8.192-8.192-10.923-21.845-5.461-32.768l38.229-60.075c-16.384-27.307-27.307-54.613-35.499-84.651l-70.997-16.384c-10.923-2.731-21.845-13.653-21.845-27.307v-54.613c0-13.653 8.192-24.576 21.845-27.307l70.997-16.384c8.192-30.037 19.115-57.344 35.499-84.651l-38.229-62.805c-5.461-10.923-5.461-24.576 5.461-32.768l38.229-38.229c5.461-5.461 10.923-8.192 19.115-8.192 5.461 0 10.923 0 13.653 2.731l62.805 38.229c27.307-16.384 54.613-27.307 84.651-35.499l16.384-70.997c2.731-10.923 13.653-21.845 27.307-21.845h54.613c13.653 0 24.576 8.192 27.307 21.845l16.384 70.997c30.037 8.192 57.344 19.115 84.651 35.499l62.805-38.229c5.461-2.731 8.192-2.731 13.653-2.731 8.192 0 13.653 2.731 19.115 8.192l38.229 38.229c8.192 8.192 10.923 21.845 5.461 32.768l-38.229 62.805c16.384 27.307 27.307 54.613 35.499 84.651l70.997 16.384c10.923 2.731 21.845 13.653 21.845 27.307v54.613c0 13.653-8.192 24.576-21.845 27.307l-70.997 16.384c-8.192 30.037-19.115 57.344-35.499 84.651l38.229 62.805c5.461 10.923 5.461 24.576-5.461 32.768l-38.229 38.229c-5.461 2.731-13.653 5.461-19.115 5.461s-10.923 0-13.653-2.731l-62.805-38.229c-27.307 16.384-54.613 27.307-84.651 35.499l-16.384 70.997c-2.731 10.923-13.653 19.115-27.307 19.115v0zM491.52 282.795c-90.112 0-163.84 73.728-163.84 163.84s73.728 163.84 163.84 163.84 163.84-73.728 163.84-163.84-73.728-163.84-163.84-163.84v0z" />
</font></defs></svg>